%YAML 1.1
%TAG !u! tag:unity3d.com,2011:
--- !u!114 &11400000
MonoBehaviour:
  m_ObjectHideFlags: 0
  m_PrefabParentObject: {fileID: 0}
  m_PrefabInternal: {fileID: 0}
  m_GameObject: {fileID: 0}
  m_Enabled: 1
  m_EditorHideFlags: 0
  m_Script: {fileID: 11500000, guid: dde73ca5775c7415b8e02f206c4bcbf8, type: 3}
  m_Name: Q15
  m_EditorClassIdentifier: 
  questionName: 'Assinale a alternativa incorreta:'
  options:
  - text: "Os projetos de sistemas fotovoltaicos normalmente exigem uma irradia\xE7\xE3o
      de no m\xEDnimo 3 a 4 kWh/(m2.dia) (125 a 166 W/m\xB2 no mapa), valores estes
      dispon\xEDveis para quase todas as \xE1reas entre os tr\xF3picos."
    isCorrect: 0
  - text: "O valor da irradia\xE7\xE3o solar incidente em um plano orientado na dire\xE7\xE3o
      dos polos e com uma inclina\xE7\xE3o igual \xE0 latitude local permite calcular
      a energia el\xE9trica que pode ser convertida por um sistema fotovoltaico fixo
      instalado nessas condi\xE7\xF5es."
    isCorrect: 1
  - text: "As perdas do fluxo de pot\xEAncia entre o espectro da irradi\xE2ncia incidente
      no topo da atmosfera e o espectro da irradi\xE2ncia global que atinge a superf\xEDcie
      inclinada resultam em cerca de 1.000 W/m\xB2 incidentes sobre a referida superf\xEDcie,
      cabendo ressaltar que este n\xEDvel de irradi\xE2ncia \xE9 considerado como
      valor padr\xE3o para a especifica\xE7\xE3o da pot\xEAncia nominal de uma c\xE9lula
      ou de um m\xF3dulo fotovoltaico."
    isCorrect: 0
  - text: "O espalhamento \xE9 a principal raz\xE3o pela qual o c\xE9u \xE9 azul."
    isCorrect: 0
