%YAML 1.1
%TAG !u! tag:unity3d.com,2011:
--- !u!114 &11400000
MonoBehaviour:
  m_ObjectHideFlags: 0
  m_PrefabParentObject: {fileID: 0}
  m_PrefabInternal: {fileID: 0}
  m_GameObject: {fileID: 0}
  m_Enabled: 1
  m_EditorHideFlags: 0
  m_Script: {fileID: 11500000, guid: dde73ca5775c7415b8e02f206c4bcbf8, type: 3}
  m_Name: Q18
  m_EditorClassIdentifier: 
  questionName: "Em rela\xE7\xE3o aos fatores que limitam a efici\xEAncia de convers\xE3o
    de uma c\xE9lula fotovoltaica, assinale a alternativa incorreta."
  options:
  - text: "sombra proporcionada pela \xE1rea da malha met\xE1lica na face frontal;"
    isCorrect: 0
  - text: "alta probabilidade de coleta, pela jun\xE7\xE3o pn, dos portadores de carga
      gerados fora da zona de carga espacial;"
    isCorrect: 0
  - text: "recombina\xE7\xE3o dos portadores de carga, isto \xE9, o \u201Creencontro\u201D
      dos el\xE9trons e lacunas em impurezas e defeitos do material"
    isCorrect: 1
  - text: "resist\xEAncia el\xE9trica no dispositivo e nos contatos metal-semicondutor,
      bem como poss\xEDveis caminhos de fuga da corrente el\xE9trica."
    isCorrect: 0
