%YAML 1.1
%TAG !u! tag:unity3d.com,2011:
--- !u!114 &11400000
MonoBehaviour:
  m_ObjectHideFlags: 0
  m_PrefabParentObject: {fileID: 0}
  m_PrefabInternal: {fileID: 0}
  m_GameObject: {fileID: 0}
  m_Enabled: 1
  m_EditorHideFlags: 0
  m_Script: {fileID: 11500000, guid: dde73ca5775c7415b8e02f206c4bcbf8, type: 3}
  m_Name: Q4
  m_EditorClassIdentifier: 
  questionName: "As principais tecnologias aplicadas na produ\xE7\xE3o de c\xE9lulas
    e m\xF3dulos fotovoltaicos s\xE3o classificadas em tr\xEAs gera\xE7\xF5es. S\xE3o
    elas:"
  options:
  - text: "Primeira Gera\xE7\xE3o (sil\xEDcio monocristalino e sil\xEDcio policristalino);
      Segunda Gera\xE7\xE3o (c\xE9lula fotovoltaica multijun\xE7\xE3o e c\xE9lula
      fotovoltaica para concentra\xE7\xE3o, c\xE9lulas sensibilizadas por corante
      e c\xE9lulas org\xE2nicas ou polim\xE9ricas) e Terceira Gera\xE7\xE3o (filmes
      finos)."
    isCorrect: 0
  - text: "Primeira Gera\xE7\xE3o (c\xE9lula fotovoltaica multijun\xE7\xE3o e c\xE9lula
      fotovoltaica para concentra\xE7\xE3o, c\xE9lulas sensibilizadas por corante
      e c\xE9lulas org\xE2nicas ou polim\xE9ricas); Segunda Gera\xE7\xE3o (sil\xEDcio
      monocristalino e sil\xEDcio policristalino) e Terceira Gera\xE7\xE3o (filmes
      finos)."
    isCorrect: 0
  - text: "Primeira Gera\xE7\xE3o (filmes finos); Segunda Gera\xE7\xE3o (sil\xEDcio
      monocristalino e sil\xEDcio policristalino) e Terceira Gera\xE7\xE3o (c\xE9lula
      fotovoltaica multijun\xE7\xE3o e c\xE9lula fotovoltaica para concentra\xE7\xE3o,
      c\xE9lulas sensibilizadas por corante e c\xE9lulas org\xE2nicas ou polim\xE9ricas)."
    isCorrect: 0
  - text: "Primeira Gera\xE7\xE3o (sil\xEDcio monocristalino e sil\xEDcio policristalino);
      Segunda Gera\xE7\xE3o (filmes finos) e Terceira Gera\xE7\xE3o (c\xE9lula fotovoltaica
      multijun\xE7\xE3o e c\xE9lula fotovoltaica para concentra\xE7\xE3o, c\xE9lulas
      sensibilizadas por corante e c\xE9lulas org\xE2nicas ou polim\xE9ricas)."
    isCorrect: 1
