%YAML 1.1
%TAG !u! tag:unity3d.com,2011:
--- !u!114 &11400000
MonoBehaviour:
  m_ObjectHideFlags: 0
  m_PrefabParentObject: {fileID: 0}
  m_PrefabInternal: {fileID: 0}
  m_GameObject: {fileID: 0}
  m_Enabled: 1
  m_EditorHideFlags: 0
  m_Script: {fileID: 11500000, guid: dde73ca5775c7415b8e02f206c4bcbf8, type: 3}
  m_Name: Q5
  m_EditorClassIdentifier: 
  questionName: "Se a obten\xE7\xE3o de energia fotovoltaica depende do Sol, o que
    acontece em dias nublados?"
  options:
  - text: "O sistema n\xE3o funciona e a unidade consumidora fica sem energia."
    isCorrect: 0
  - text: "Apesar da gera\xE7\xE3o ser menor do que em dias ensolarados, mesmo em
      dias nublados (ou at\xE9 mesmo chuvosos) o sistema fotovoltaico continua produzindo
      energia."
    isCorrect: 1
