%YAML 1.1
%TAG !u! tag:unity3d.com,2011:
--- !u!1045 &1
EditorBuildSettings:
  m_ObjectHideFlags: 0
  serializedVersion: 2
  m_Scenes:
  - enabled: 1
    path: Assets/Phototype/_Scenes/MainMenu.unity
    guid: 9f650673465e549b4901779027263333
  - enabled: 1
    path: Assets/Phototype/_Scenes/ControlRoom.unity
    guid: d6b3b59924d1943f49c367f0d8b37924
  - enabled: 1
    path: Assets/Phototype/_Scenes/Stage01.unity
    guid: 1deacc31b9dc74b7f9908c8441beb077
  - enabled: 1
    path: Assets/Phototype/_Scenes/Stage02.unity
    guid: 61b92eb178f1342fa99f810207e9c100
  - enabled: 1
    path: Assets/Phototype/_Scenes/Stage03.unity
    guid: 4835a1ae04a9d48b59d6e65cef8b7db9
  - enabled: 1
    path: Assets/Phototype/_Scenes/FinalStage.unity
    guid: 61601d0146da24f2687bc67fe5ab02aa
  - enabled: 1
    path: Assets/Phototype/_Scenes/IntroScene.unity
    guid: 0b6269e3c092048aa970556a99c7519a
  - enabled: 1
    path: Assets/Phototype/_Scenes/FinalScene.unity
    guid: 523b71a9424c343ea8bcaa174849a8b6
